<?xml version="1.0" encoding="utf-8"?>
<!-- Generator: Adobe Illustrator 23.0.4, SVG Export Plug-In . SVG Version: 6.00 Build 0)  -->
<svg version="1.1" id="Layer_1" xmlns="http://www.w3.org/2000/svg" xmlns:xlink="http://www.w3.org/1999/xlink" x="0px" y="0px"
	 viewBox="0 0 80 80" style="enable-background:new 0 0 80 80;" xml:space="preserve">
<style type="text/css">
	.st0{fill:#5737A9;stroke:#1C1330;stroke-width:1.551;stroke-linecap:round;stroke-linejoin:round;stroke-miterlimit:10;}
	.st1{fill:#FCBA72;stroke:#333333;stroke-width:1.551;stroke-linecap:round;stroke-linejoin:round;stroke-miterlimit:10;}
	.st2{fill:#FCD3A7;stroke:#333333;stroke-width:1.551;stroke-linecap:round;stroke-linejoin:round;stroke-miterlimit:10;}
	.st3{fill:url(#SVGID_1_);stroke:#4D4D4D;stroke-width:1.551;stroke-linecap:round;stroke-linejoin:round;stroke-miterlimit:10;}
	.st4{fill:url(#SVGID_2_);stroke:#4D4D4D;stroke-width:1.551;stroke-linecap:round;stroke-linejoin:round;stroke-miterlimit:10;}
	.st5{fill:#CCCCCC;stroke:#333333;stroke-width:1.551;stroke-linecap:round;stroke-linejoin:round;stroke-miterlimit:10;}
	.st6{fill:#F05133;}
	.st7{fill:none;stroke:#333333;stroke-width:1.551;stroke-linecap:round;stroke-linejoin:round;stroke-miterlimit:10;}
	.st8{fill:url(#SVGID_3_);stroke:#333333;stroke-width:1.551;stroke-linecap:round;stroke-linejoin:round;stroke-miterlimit:10;}
	.st9{fill:url(#SVGID_4_);stroke:#333333;stroke-width:1.551;stroke-linecap:round;stroke-linejoin:round;stroke-miterlimit:10;}
	.st10{fill:#FC6D26;stroke:#333333;stroke-width:1.551;stroke-linecap:round;stroke-linejoin:round;stroke-miterlimit:10;}
</style>
<line class="st0" x1="77.6" y1="78.1" x2="2.3" y2="78.1"/>
<path class="st1" d="M65.4,66.8c-1.9-4.3-6.2-7.3-11.2-7.3c-3.3,0-6.2,1.3-8.4,3.4l-2.1-19.3h-7.4L34.1,63c-2.2-2.1-5.2-3.4-8.4-3.4
	c-5,0-9.3,3-11.2,7.3L19,76h40L65.4,66.8z"/>
<path class="st2" d="M59.2,77.9c0-5.9,4.2-10.7,9.4-10.7c5.2,0,9.4,4.8,9.4,10.7H59.2z"/>
<path class="st2" d="M2,77.9c0-5.9,4.2-10.7,9.4-10.7s9.4,4.8,9.4,10.7H2z"/>
<path class="st2" d="M19.3,77.9c0-5.2,9.3-9.4,20.7-9.4s20.7,4.2,20.7,9.4H19.3z"/>
<linearGradient id="SVGID_1_" gradientUnits="userSpaceOnUse" x1="47.7128" y1="70.7705" x2="47.7128" y2="70.7705">
	<stop  offset="0" style="stop-color:#E6E6E6"/>
	<stop  offset="0.2575" style="stop-color:#E6E5E3"/>
	<stop  offset="0.4123" style="stop-color:#E7E3DB"/>
	<stop  offset="0.5401" style="stop-color:#E9DECD"/>
	<stop  offset="0.653" style="stop-color:#ECD8B8"/>
	<stop  offset="0.7562" style="stop-color:#EFCF9E"/>
	<stop  offset="0.8524" style="stop-color:#F3C57E"/>
	<stop  offset="0.9413" style="stop-color:#F7B958"/>
	<stop  offset="1" style="stop-color:#FBB03B"/>
</linearGradient>
<path class="st3" d="M47.7,70.8"/>
<linearGradient id="SVGID_2_" gradientUnits="userSpaceOnUse" x1="48.3377" y1="77.0609" x2="48.3377" y2="77.0609">
	<stop  offset="0" style="stop-color:#E6E6E6"/>
	<stop  offset="0.2575" style="stop-color:#E6E5E3"/>
	<stop  offset="0.4123" style="stop-color:#E7E3DB"/>
	<stop  offset="0.5401" style="stop-color:#E9DECD"/>
	<stop  offset="0.653" style="stop-color:#ECD8B8"/>
	<stop  offset="0.7562" style="stop-color:#EFCF9E"/>
	<stop  offset="0.8524" style="stop-color:#F3C57E"/>
	<stop  offset="0.9413" style="stop-color:#F7B958"/>
	<stop  offset="1" style="stop-color:#FBB03B"/>
</linearGradient>
<path class="st4" d="M48.3,77.1"/>
<g>
	<path class="st5" d="M45,44.1c2.3-5,3.3-12.6,3.3-12.6l0,0.2c0.2-2.5,0.3-4.7,0.2-6.5c-0.1-4.2-0.7-7.8-2-10.8
		c-1.3-3-3.4-5.9-6.4-8.8c-0.2-0.2-0.3-0.2-0.6-0.2c-0.2,0-0.4,0.1-0.6,0.3c-3,3.1-5.1,6.1-6.2,8.9c-1.1,2.8-1.7,6.5-1.6,10.9
		c0,1.9,0.2,4.1,0.4,6.5l0-0.4c0,0,1,7.6,3.3,12.6l0.3,0.1l0.6,0l-0.4,2.2c-0.1,0.4,0.2,0.8,0.6,0.8h2.2c0,0.4,0.3,0.7,0.7,0.7h2.5
		c0.4,0,0.7-0.3,0.7-0.7h2.2c0.4,0,0.7-0.4,0.6-0.8l-0.5-2.3L45,44.1L45,44.1z"/>
	<polygon class="st6" points="31.5,32 25.1,39.5 28.2,51 31.4,51 35,44.1 32.8,38.5 	"/>
	<polygon class="st6" points="48.5,32 54.9,39.5 51.8,51 48.6,51 45,44.1 47.2,38.5 	"/>
	<path class="st7" d="M36.7,3.8c0.6-0.6,1.8-1.7,2.7-1.7c0.1,0,0.1,0,0.1,0c0.9,0,2.1,1,2.7,1.6"/>
	<path class="st7" d="M54.7,38.7l-6.4-6.9c0.2-2.5,0.3-4.7,0.2-6.5c-0.1-4.2-0.7-7.8-2-10.8c-1.3-3-3.4-5.9-6.4-8.8
		c-0.2-0.2-0.3-0.2-0.6-0.2c-0.2,0-0.4,0.1-0.6,0.3c-3,3.1-5.1,6.1-6.2,8.9c-1.1,2.8-1.7,6.5-1.6,10.9c0,1.9,0.2,4.1,0.4,6.5
		l-6.2,7.1c-0.2,0.2-0.2,0.5-0.2,0.7l3,10.7c0.1,0.4,0.4,0.6,0.8,0.6l2.3,0c0.2,0,0.4-0.1,0.6-0.3c0.1-0.1,0.1-0.1,0.1-0.2l3.3-6.4
		l0.6,0l-0.4,2.2c-0.1,0.4,0.2,0.8,0.6,0.8h2.2c0,0.4,0.3,0.7,0.7,0.7h2.5c0.4,0,0.7-0.3,0.7-0.7h2.2c0.4,0,0.7-0.4,0.6-0.8
		l-0.5-2.3l0.7,0l3.5,6.3c0.2,0.3,0.4,0.4,0.7,0.4l2.3,0c0.2,0,0.4-0.1,0.6-0.3c0.1-0.1,0.2-0.2,0.2-0.4l2.7-10.8
		C54.9,39.1,54.9,38.9,54.7,38.7z"/>
	<path class="st7" d="M24,46.2l0.3,0.9 M23.6,36.5l-1.4,1.6c-0.2,0.2-0.2,0.5-0.2,0.7l0.9,3.3"/>
	<path class="st7" d="M56.4,43.9l0.1-0.4 M57.6,40l0.4-1.6c0.1-0.3,0-0.5-0.2-0.7l-0.9-1"/>
	<linearGradient id="SVGID_3_" gradientUnits="userSpaceOnUse" x1="46.6176" y1="44.1286" x2="46.6176" y2="31.5553">
		<stop  offset="0" style="stop-color:#ED6265"/>
		<stop  offset="0.243" style="stop-color:#E38385"/>
		<stop  offset="0.5742" style="stop-color:#D6ABAC"/>
		<stop  offset="0.8381" style="stop-color:#CFC3C3"/>
		<stop  offset="1" style="stop-color:#CCCCCC"/>
	</linearGradient>
	<path class="st8" d="M48.3,31.6c0,0-1,7.6-3.3,12.6"/>
	
		<linearGradient id="SVGID_4_" gradientUnits="userSpaceOnUse" x1="1310.8657" y1="44.1286" x2="1310.8657" y2="31.5553" gradientTransform="matrix(-1 0 0 1 1344 0)">
		<stop  offset="0" style="stop-color:#ED6265"/>
		<stop  offset="0.243" style="stop-color:#E38385"/>
		<stop  offset="0.5742" style="stop-color:#D6ABAC"/>
		<stop  offset="0.8381" style="stop-color:#CFC3C3"/>
		<stop  offset="1" style="stop-color:#CCCCCC"/>
	</linearGradient>
	<path class="st9" d="M31.5,31.6c0,0,1,7.6,3.3,12.6"/>
	<line class="st7" x1="40" y1="51.1" x2="40" y2="31.9"/>
	<path class="st10" d="M43.9,21.1l-0.4-1.3c0,0,0,0,0,0l-0.8-2.5c0-0.1-0.2-0.2-0.3-0.2c0,0,0,0,0,0c-0.1,0-0.3,0.1-0.3,0.2
		l-0.8,2.4h-2.5L38,17.3c0-0.1-0.2-0.2-0.3-0.2c0,0,0,0,0,0c-0.1,0-0.3,0.1-0.3,0.2l-0.8,2.5c0,0,0,0,0,0c0,0,0,0,0,0l-0.4,1.3
		c-0.1,0.2,0,0.4,0.2,0.5l3.6,2.6c0,0,0.1,0,0.1,0c0,0,0.1,0,0.1,0c0,0,0,0,0,0c0,0,0,0,0,0c0,0,0,0,0,0c0,0,0,0,0,0c0,0,0,0,0,0
		l3.6-2.6C43.9,21.5,43.9,21.2,43.9,21.1z"/>
</g>
</svg>
